Chapter 2: Tests for Two Continuous Population Mean – The Mini Test Book
…
Test Flavour and Components

Inferential Conclusions

Storytelling

Ignore the following content for now. Still editting

In this example, we start with a dataset that records the time MDS students spend on course website of DSCI 554. You will encounter this dataset again in DSCI 554 when we discuss A/B/n testing. For now, here’s what the dataset looks like:

ABn_data <- read_csv('data/ABn_data.csv', show_col_types = FALSE)
ABn_data <- ABn_data %>% mutate(Colour = as.factor(Colour), Font = as.factor(Font))
ABn_data

# A tibble: 72 × 3
   Duration Colour Font  
      <dbl> <fct>  <fct> 
 1       90 Red    Small 
 2       95 Red    Large 
 3      107 Red    Medium
 4       92 Red    Small 
 5       89 Red    Large 
 6       92 Red    Medium
 7       81 Red    Small 
 8       92 Red    Large 
 9       93 Red    Medium
10       80 Blue   Small 
# ℹ 62 more rows
…
